decoder_3to8_en.vcd
$date
	Tue Jan 17 12:18:48 2023
$end
$version
	Icarus Verilog
$end
$timescale
	1s
$end
$scope module decoder_3to8_en_tb $end
$var wire 8 ! y [7:0] $end
$var reg 1 " enab $end
$var reg 3 # inp [2:0] $end
$scope module G5 $end
$var wire 1 " enab $end
$var wire 3 $ inp [2:0] $end
$var reg 8 % y [7:0] $end
$upscope $end
$upscope $end
$enddefinitions $end
$comment Show the parameter values. $end
$dumpall
$end
#0
$dumpvars
b0 %
b10 $
b10 #
0"
b0 !
$end
#10
b1 !
b1 %
b0 #
b0 $
1"
#20
b10 !
b10 %
b1 #
b1 $
#30
b100 !
b100 %
b10 #
b10 $
#40
b1000 !
b1000 %
b11 #
b11 $
#50
b10000 !
b10000 %
b100 #
b100 $
#60
b100000 !
b100000 %
b101 #
b101 $
#70
b1000000 !
b1000000 %
b110 #
b110 $
#80
b10000000 !
b10000000 %
b111 #
b111 $
#90
b0 !
b0 %
0"
