test.vcd
$date
	Wed Feb 08 15:03:44 2023
$end
$version
	Icarus Verilog
$end
$timescale
	1ps
$end
$scope module test_counter $end
$var wire 4 ! q [3:0] $end
$var reg 1 " clk $end
$var reg 1 # reset $end
$scope module uut $end
$var wire 1 " CLK $end
$var wire 1 # reset $end
$var wire 2 $ nine_yet_op [1:0] $end
$var wire 4 % OUT [3:0] $end
$var wire 1 & CLK_new $end
$scope module Q0 $end
$var wire 1 ' T $end
$var wire 1 # reset $end
$var wire 1 & CLK $end
$var reg 1 ( OUT $end
$upscope $end
$scope module Q1 $end
$var wire 1 ) CLK $end
$var wire 1 * T $end
$var wire 1 # reset $end
$var reg 1 + OUT $end
$upscope $end
$scope module Q2 $end
$var wire 1 , CLK $end
$var wire 1 - T $end
$var wire 1 # reset $end
$var reg 1 . OUT $end
$upscope $end
$scope module Q3 $end
$var wire 1 / CLK $end
$var wire 1 0 T $end
$var wire 1 # reset $end
$var reg 1 1 OUT $end
$upscope $end
$scope module m $end
$var wire 4 2 IN [3:0] $end
$var reg 2 3 OUT [1:0] $end
$upscope $end
$scope module uut $end
$var wire 1 " clk $end
$var wire 1 # reset $end
$var parameter 32 4 W $end
$var reg 32 5 int_count [31:0] $end
$var reg 1 & out $end
$upscope $end
$upscope $end
$upscope $end
$enddefinitions $end
$comment Show the parameter values. $end
$dumpall
b10111110101111000010000000 4
$end
#0
$dumpvars
bx 5
b11 3
b0 2
01
10
1/
0.
1-
1,
0+
1*
1)
0(
1'
x&
b0 %
b11 $
1#
0"
b0 !
$end
#10000
0&
b0 5
1"
#20000
0"
#30000
1"
#40000
0"
#50000
1"
#60000
0"
#70000
1"
#80000
0"
#90000
1"
#100000
0"
0#
#110000
b1 5
1"
#120000
0"
#130000
b10 5
1"
#140000
0"
#150000
b11 5
1"
#160000
0"
#170000
b100 5
1"
#180000
0"
#190000
b101 5
1"
#200000
0"
#210000
b110 5
1"
#220000
0"
#230000
b111 5
1"
#240000
0"
#250000
b1000 5
1"
#260000
0"
#270000
b1001 5
1"
#280000
0"
#290000
b1010 5
1"
#300000
0"
#310000
b1011 5
1"
#320000
0"
#330000
b1100 5
1"
#340000
0"
#350000
b1101 5
1"
#360000
0"
#370000
b1110 5
1"
#380000
0"
#390000
b1111 5
1"
#400000
0"
#410000
b10000 5
1"
#420000
0"
#430000
b10001 5
1"
#440000
0"
#450000
b10010 5
1"
#460000
0"
#470000
b10011 5
1"
#480000
0"
#490000
b10100 5
1"
#500000
0"
#510000
b10101 5
1"
#520000
0"
#530000
b10110 5
1"
#540000
0"
#550000
b10111 5
1"
#560000
0"
#570000
b11000 5
1"
#580000
0"
#590000
b11001 5
1"
#600000
0"
#610000
b11010 5
1"
#620000
0"
#630000
b11011 5
1"
#640000
0"
#650000
b11100 5
1"
#660000
0"
#670000
b11101 5
1"
#680000
0"
#690000
b11110 5
1"
#700000
0"
#710000
b11111 5
1"
#720000
0"
#730000
b100000 5
1"
#740000
0"
#750000
b100001 5
1"
#760000
0"
#770000
b100010 5
1"
#780000
0"
#790000
b100011 5
1"
#800000
0"
#810000
b100100 5
1"
#820000
0"
#830000
b100101 5
1"
#840000
0"
#850000
b100110 5
1"
#860000
0"
#870000
b100111 5
1"
#880000
0"
#890000
b101000 5
1"
#900000
0"
#910000
b101001 5
1"
#920000
0"
#930000
b101010 5
1"
#940000
0"
#950000
b101011 5
1"
#960000
0"
#970000
b101100 5
1"
#980000
0"
#990000
b101101 5
1"
#1000000
0"
#1010000
b101110 5
1"
#1020000
0"
#1030000
b101111 5
1"
#1040000
0"
#1050000
b110000 5
1"
#1060000
0"
#1070000
b110001 5
1"
#1080000
0"
#1090000
b110010 5
1"
#1100000
0"
#1110000
b110011 5
1"
#1120000
0"
#1130000
b110100 5
1"
#1140000
0"
#1150000
b110101 5
1"
#1160000
0"
#1170000
b110110 5
1"
#1180000
0"
#1190000
b110111 5
1"
#1200000
0"
#1210000
b111000 5
1"
#1220000
0"
#1230000
b111001 5
1"
#1240000
0"
#1250000
b111010 5
1"
#1260000
0"
#1270000
b111011 5
1"
#1280000
0"
#1290000
b111100 5
1"
#1300000
0"
#1310000
b111101 5
1"
#1320000
0"
#1330000
b111110 5
1"
#1340000
0"
#1350000
b111111 5
1"
#1360000
0"
#1370000
b1000000 5
1"
#1380000
0"
#1390000
b1000001 5
1"
#1400000
0"
#1410000
b1000010 5
1"
#1420000
0"
#1430000
b1000011 5
1"
#1440000
0"
#1450000
b1000100 5
1"
#1460000
0"
#1470000
b1000101 5
1"
#1480000
0"
#1490000
b1000110 5
1"
#1500000
0"
#1510000
b1000111 5
1"
#1520000
0"
#1530000
b1001000 5
1"
#1540000
0"
#1550000
b1001001 5
1"
#1560000
0"
#1570000
b1001010 5
1"
#1580000
0"
#1590000
b1001011 5
1"
#1600000
0"
#1610000
b1001100 5
1"
#1620000
0"
#1630000
b1001101 5
1"
#1640000
0"
#1650000
b1001110 5
1"
#1660000
0"
#1670000
b1001111 5
1"
#1680000
0"
#1690000
b1010000 5
1"
#1700000
0"
#1710000
b1010001 5
1"
#1720000
0"
#1730000
b1010010 5
1"
#1740000
0"
#1750000
b1010011 5
1"
#1760000
0"
#1770000
b1010100 5
1"
#1780000
0"
#1790000
b1010101 5
1"
#1800000
0"
#1810000
b1010110 5
1"
#1820000
0"
#1830000
b1010111 5
1"
#1840000
0"
#1850000
b1011000 5
1"
#1860000
0"
#1870000
b1011001 5
1"
#1880000
0"
#1890000
b1011010 5
1"
#1900000
0"
#1910000
b1011011 5
1"
#1920000
0"
#1930000
b1011100 5
1"
#1940000
0"
#1950000
b1011101 5
1"
#1960000
0"
#1970000
b1011110 5
1"
#1980000
0"
#1990000
b1011111 5
1"
#2000000
0"
#2010000
b1100000 5
1"
#2020000
0"
#2030000
b1100001 5
1"
#2040000
0"
#2050000
b1100010 5
1"
#2060000
0"
#2070000
b1100011 5
1"
#2080000
0"
#2090000
b1100100 5
1"
