CSE_BUBBLE/final_tb.vcd
$date
	Wed Apr 12 15:25:19 2023
$end
$version
	Icarus Verilog
$end
$timescale
	1ps
$end
$scope module top_tb $end
$var reg 1 ! clk $end
$var integer 32 " i [31:0] $end
$scope module uut $end
$var wire 1 ! clk $end
$var wire 32 # r_wbdata [31:0] $end
$var wire 32 $ r_read2 [31:0] $end
$var wire 32 % r_read1 [31:0] $end
$var wire 32 & pc_out [31:0] $end
$var wire 32 ' pc_in [31:0] $end
$var wire 32 ( im_instruction [31:0] $end
$var wire 6 ) im_funcode [5:0] $end
$var wire 6 * im_ctr [5:0] $end
$var wire 1 + c_zero $end
$var wire 1 , c_RegWrite $end
$var wire 1 - c_RegDst $end
$var wire 1 . c_MemtoReg $end
$var wire 1 / c_MemWrite $end
$var wire 1 0 c_MemRead $end
$var wire 1 1 c_Jump $end
$var wire 1 2 c_Branch $end
$var wire 1 3 c_Bne $end
$var wire 4 4 c_ALUcontrol [3:0] $end
$var wire 1 5 c_ALUSrc $end
$var wire 2 6 c_ALUOp [1:0] $end
$var wire 32 7 alu_result [31:0] $end
$scope module u1 $end
$var wire 1 ! clk $end
$var wire 32 8 nextPC [31:0] $end
$var reg 32 9 PC [31:0] $end
$upscope $end
$scope module u2 $end
$var wire 32 : address [31:0] $end
$var reg 6 ; control [5:0] $end
$var reg 6 < func [5:0] $end
$var reg 32 = instruction [31:0] $end
$var integer 32 > i [31:0] $end
$upscope $end
$scope module u4 $end
$var wire 32 ? instruction [31:0] $end
$var wire 32 @ read2 [31:0] $end
$var wire 32 A data1 [31:0] $end
$var wire 4 B ALUcontrol [3:0] $end
$var wire 1 5 ALUSrc $end
$var reg 32 C ALUresult [31:0] $end
$var reg 32 D data2 [31:0] $end
$var reg 1 + zero $end
$upscope $end
$scope module u5 $end
$var wire 6 E instruction [5:0] $end
$var wire 2 F ALUOp [1:0] $end
$var reg 4 G ALUcontrol [3:0] $end
$upscope $end
$scope module u6 $end
$var wire 32 H instruction [31:0] $end
$var reg 2 I ALUOp [1:0] $end
$var reg 1 5 ALUSrc $end
$var reg 1 3 Bne $end
$var reg 1 2 Branch $end
$var reg 1 1 Jump $end
$var reg 1 0 MemRead $end
$var reg 1 / MemWrite $end
$var reg 1 . MemtoReg $end
$var reg 1 - RegDst $end
$var reg 1 , RegWrite $end
$upscope $end
$scope module u8 $end
$var wire 1 3 Bne $end
$var wire 1 2 Branch $end
$var wire 1 1 Jump $end
$var wire 32 J PC [31:0] $end
$var wire 32 K instruction [31:0] $end
$var wire 1 + zero $end
$var reg 32 L jump [31:0] $end
$var reg 32 M nextPC [31:0] $end
$var reg 32 N old_alter [31:0] $end
$var reg 32 O sign_ext [31:0] $end
$var reg 1 P zero_alter $end
$upscope $end
$scope module u_Data_memory $end
$var wire 1 0 MemRead $end
$var wire 1 / MemWrite $end
$var wire 1 . MemtoReg $end
$var wire 32 Q address [31:0] $end
$var wire 1 ! clk $end
$var wire 32 R result [31:0] $end
$var wire 32 S writeData [31:0] $end
$var reg 32 T readData [31:0] $end
$upscope $end
$scope module u_Register $end
$var wire 32 U ReadData1 [31:0] $end
$var wire 32 V ReadData2 [31:0] $end
$var wire 32 W WriteData [31:0] $end
$var wire 1 , WriteEnable $end
$var wire 1 ! clk $end
$var wire 1 - destination $end
$var wire 32 X instruction [31:0] $end
$var wire 5 Y dest_for_reg [4:0] $end
$var wire 5 Z dest_for_imm [4:0] $end
$var integer 32 [ i [31:0] $end
$upscope $end
$upscope $end
$upscope $end
$enddefinitions $end
$comment Show the parameter values. $end
$dumpall
$end
#0
$dumpvars
b100000 [
b0 Z
b0 Y
b11111100000000000000000000000000 X
b0 W
b0 V
b0 U
b0 T
b0 S
b0 R
b0 Q
1P
b0 O
b0 N
b0 M
b0 L
b11111100000000000000000000000000 K
b11111111111111111111111111111100 J
b0 I
b11111100000000000000000000000000 H
b10 G
b0 F
b0 E
b0 D
b0 C
b10 B
b0 A
b0 @
b11111100000000000000000000000000 ?
b100000 >
b11111100000000000000000000000000 =
b0 <
b111111 ;
b11111111111111111111111111111100 :
b11111111111111111111111111111100 9
b0 8
b0 7
b0 6
05
b10 4
03
02
01
00
0/
0.
0-
0,
1+
b111111 *
b0 )
b11111100000000000000000000000000 (
b0 '
b11111111111111111111111111111100 &
b0 %
b0 $
b0 #
b100000 "
0!
$end
#10000
0P
b1001 #
b1001 T
b1001 W
0+
b1001 7
b1001 C
b1001 Q
b1001 R
b1001 D
1,
15
b100100 O
b1000110001000000000000100100 L
b10001 Z
b100 '
b100 8
b100 M
b1001 )
b1001 <
b1001 E
b1000 *
b1000 ;
b100010001100010000000000001001 (
b100010001100010000000000001001 =
b100010001100010000000000001001 ?
b100010001100010000000000001001 H
b100010001100010000000000001001 K
b100010001100010000000000001001 X
b100 N
b0 &
b0 9
b0 :
b0 J
1!
#20000
0!
#30000
b1000 #
b1000 T
b1000 W
b1000 '
b1000 8
b1000 M
b11111111111111111111111111111100 O
b1000110001111111111111111100 L
b11111 Y
b1000 7
b1000 C
b1000 Q
b1000 R
b11111111111111111111111111111111 D
b1000 N
b111111 )
b111111 <
b111111 E
b100010001100011111111111111111 (
b100010001100011111111111111111 =
b100010001100011111111111111111 ?
b100010001100011111111111111111 H
b100010001100011111111111111111 K
b100010001100011111111111111111 X
b1001 %
b1001 A
b1001 U
b1001 $
b1001 @
b1001 S
b1001 V
b100 &
b100 9
b100 :
b100 J
1!
#40000
0!
#50000
1P
1+
b0 D
b0 O
b1001000000000000000000 L
b1001 Z
b0 Y
b1100 '
b1100 8
b1100 M
b0 #
b0 T
b0 W
b0 )
b0 <
b0 E
b100000000010010000000000000000 (
b100000000010010000000000000000 =
b100000000010010000000000000000 ?
b100000000010010000000000000000 H
b100000000010010000000000000000 K
b100000000010010000000000000000 X
b1100 N
b0 7
b0 C
b0 Q
b0 R
b1000 &
b1000 9
b1000 :
b1000 J
b0 %
b0 A
b0 U
b0 $
b0 @
b0 S
b0 V
1!
#60000
0!
#70000
b10000 '
b10000 8
b10000 M
b1010000000000000000000 L
b1010 Z
b10000 N
b100000000010100000000000000000 (
b100000000010100000000000000000 =
b100000000010100000000000000000 ?
b100000000010100000000000000000 H
b100000000010100000000000000000 K
b100000000010100000000000000000 X
b1100 &
b1100 9
b1100 :
b1100 J
1!
#80000
0!
#90000
0P
b1000 #
b1000 T
b1000 W
0+
b1000 7
b1000 C
b1000 Q
b1000 R
b110 4
b110 B
b110 G
b10 6
b10 F
b10 I
05
1-
b11111111111111101110000010001000 O
b1000101001101110000010001000 L
b1001 Z
b10111 Y
b1000 %
b1000 A
b1000 U
b10100 '
b10100 8
b10100 M
b100010 )
b100010 <
b100010 E
b0 *
b0 ;
b10001010011011100000100010 (
b10001010011011100000100010 =
b10001010011011100000100010 ?
b10001010011011100000100010 H
b10001010011011100000100010 K
b10001010011011100000100010 X
b10100 N
b10000 &
b10000 9
b10000 :
b10000 J
1!
#100000
0!
#110000
1P
b0 #
b0 T
b0 W
1+
b0 7
b0 C
b0 Q
b0 R
b11000 '
b11000 8
b11000 M
b10 4
b10 B
b10 G
b0 O
b1000010010000000000000000000 L
b0 6
b0 F
b0 I
15
0-
b10010 Z
b0 Y
b0 %
b0 A
b0 U
b11000 N
b0 )
b0 <
b0 E
b1000 *
b1000 ;
b100010000100100000000000000000 (
b100010000100100000000000000000 =
b100010000100100000000000000000 ?
b100010000100100000000000000000 H
b100010000100100000000000000000 K
b100010000100100000000000000000 X
b10100 &
b10100 9
b10100 :
b10100 J
1!
#120000
0!
#130000
b100 #
b100 T
b100 W
10
1.
b1001001011000000000000000000 L
b1011 Z
b11100 '
b11100 8
b11100 M
b100011 *
b100011 ;
b10001110010010110000000000000000 (
b10001110010010110000000000000000 =
b10001110010010110000000000000000 ?
b10001110010010110000000000000000 H
b10001110010010110000000000000000 K
b10001110010010110000000000000000 X
b11100 N
b11000 &
b11000 9
b11000 :
b11000 J
1!
#140000
0!
#150000
0P
b10 #
b10 T
b10 W
0+
b1 7
b1 C
b1 Q
b1 R
b100000 '
b100000 8
b100000 M
b100 O
b1001001100000000000000000100 L
b1100 Z
b1 D
b100000 N
b1 )
b1 <
b1 E
b10001110010011000000000000000001 (
b10001110010011000000000000000001 =
b10001110010011000000000000000001 ?
b10001110010011000000000000000001 H
b10001110010011000000000000000001 K
b10001110010011000000000000000001 X
b0 $
b0 @
b0 S
b0 V
b11100 &
b11100 9
b11100 :
b11100 J
1!
#160000
0!
#170000
b1 #
b1 T
b1 W
b111 4
b111 B
b111 G
b100 D
b10 6
b10 F
b10 I
00
0.
05
1-
b11111111111111110000000010101000 O
b110001011110000000010101000 L
b1011 Z
b11000 Y
b10 %
b10 A
b10 U
b100100 '
b100100 8
b100100 M
b101010 )
b101010 <
b101010 E
b0 *
b0 ;
b1100010111100000000101010 (
b1100010111100000000101010 =
b1100010111100000000101010 ?
b1100010111100000000101010 H
b1100010111100000000101010 K
b1100010111100000000101010 X
b100100 N
b100000 &
b100000 9
b100000 :
b100000 J
b100 $
b100 @
b100 S
b100 V
1!
#180000
0!
#190000
b101000 '
b101000 8
b101000 M
b110 4
b110 B
b110 G
b0 D
b1000 O
b1100000000000000000000001000 L
b1 6
b1 F
b1 I
12
0,
0-
b0 Z
b0 Y
b1 %
b1 A
b1 U
b0 $
b0 @
b0 S
b0 V
b101000 N
b10 )
b10 <
b10 E
b100 *
b100 ;
b10011000000000000000000000010 (
b10011000000000000000000000010 =
b10011000000000000000000000010 ?
b10011000000000000000000000010 H
b10011000000000000000000000010 K
b10011000000000000000000000010 X
b100100 &
b100100 9
b100100 :
b100100 J
1!
#200000
0!
#210000
1P
b0 #
b0 T
b0 W
1+
b0 7
b0 C
b0 Q
b0 R
b10 4
b10 B
b10 G
b0 6
b0 F
b0 I
02
1/
15
b0 O
b1001001100000000000000000000 L
b1100 Z
b0 %
b0 A
b0 U
b10 $
b10 @
b10 S
b10 V
b101100 '
b101100 8
b101100 M
b0 )
b0 <
b0 E
b101011 *
b101011 ;
b10101110010011000000000000000000 (
b10101110010011000000000000000000 =
b10101110010011000000000000000000 ?
b10101110010011000000000000000000 H
b10101110010011000000000000000000 K
b10101110010011000000000000000000 X
b101100 N
b101000 &
b101000 9
b101000 :
b101000 J
1!
#220000
0!
#230000
0P
b1 #
b1 T
b1 W
0+
b1 7
b1 C
b1 Q
b1 R
b110000 '
b110000 8
b110000 M
b1 D
b100 O
b1001001011000000000000000100 L
b1011 Z
b100 $
b100 @
b100 S
b100 V
b110000 N
b1 )
b1 <
b1 E
b10101110010010110000000000000001 (
b10101110010010110000000000000001 =
b10101110010010110000000000000001 ?
b10101110010010110000000000000001 H
b10101110010010110000000000000001 K
b10101110010010110000000000000001 X
b101100 &
b101100 9
b101100 :
b101100 J
1!
#240000
0!
#250000
0/
1,
b100 O
b1001010010000000000000000100 L
b10010 Z
b0 $
b0 @
b0 S
b0 V
b110100 '
b110100 8
b110100 M
b1000 *
b1000 ;
b100010010100100000000000000001 (
b100010010100100000000000000001 =
b100010010100100000000000000001 ?
b100010010100100000000000000001 H
b100010010100100000000000000001 K
b100010010100100000000000000001 X
b110100 N
b110000 &
b110000 9
b110000 :
b110000 J
1!
#260000
0!
#270000
b1 #
b1 T
b1 W
b111000 '
b111000 8
b111000 M
b100 O
b101001010000000000000000100 L
b1010 Z
b1 7
b1 C
b1 Q
b1 R
b111000 N
b100001010010100000000000000001 (
b100001010010100000000000000001 =
b100001010010100000000000000001 ?
b100001010010100000000000000001 H
b100001010010100000000000000001 K
b100001010010100000000000000001 X
b0 %
b0 A
b0 U
b0 $
b0 @
b0 S
b0 V
b110100 &
b110100 9
b110100 :
b110100 J
1!
#280000
0!
#290000
1P
b110 4
b110 B
b110 G
b1000 D
b1 6
b1 F
b1 I
13
12
0,
05
b11111111111111111111111111011100 O
b101010111111111111111011100 L
b10111 Z
b11111 Y
b11000 '
b11000 8
b11000 M
b11111111111111111111111111111001 #
b11111111111111111111111111111001 T
b11111111111111111111111111111001 W
b110111 )
b110111 <
b110111 E
b101 *
b101 ;
b10101010101111111111111110111 (
b10101010101111111111111110111 =
b10101010101111111111111110111 ?
b10101010101111111111111110111 H
b10101010101111111111111110111 K
b10101010101111111111111110111 X
b111100 N
b11111111111111111111111111111001 7
b11111111111111111111111111111001 C
b11111111111111111111111111111001 Q
b11111111111111111111111111111001 R
b111000 &
b111000 9
b111000 :
b111000 J
b1 %
b1 A
b1 U
b1000 $
b1000 @
b1000 S
b1000 V
1!
#300000
0!
#310000
b1 7
b1 C
b1 Q
b1 R
0P
b100 #
b100 T
b100 W
b11100 '
b11100 8
b11100 M
b10 4
b10 B
b10 G
b0 D
b0 O
b1001001011000000000000000000 L
b0 6
b0 F
b0 I
03
02
10
1,
1.
15
b1011 Z
b0 Y
b100 $
b100 @
b100 S
b100 V
b11100 N
b0 )
b0 <
b0 E
b100011 *
b100011 ;
b10001110010010110000000000000000 (
b10001110010010110000000000000000 =
b10001110010010110000000000000000 ?
b10001110010010110000000000000000 H
b10001110010010110000000000000000 K
b10001110010010110000000000000000 X
b11000 &
b11000 9
b11000 :
b11000 J
1!
#320000
0!
#330000
b101011 #
b101011 T
b101011 W
b10 7
b10 C
b10 Q
b10 R
b1 D
b100 O
b1001001100000000000000000100 L
b1100 Z
b10 $
b10 @
b10 S
b10 V
b100000 '
b100000 8
b100000 M
b1 )
b1 <
b1 E
b10001110010011000000000000000001 (
b10001110010011000000000000000001 =
b10001110010011000000000000000001 ?
b10001110010011000000000000000001 H
b10001110010011000000000000000001 K
b10001110010011000000000000000001 X
b100000 N
b11100 &
b11100 9
b11100 :
b11100 J
1!
#340000
0!
#350000
1P
1+
b0 #
b0 T
b0 W
b0 7
b0 C
b0 Q
b0 R
b100100 '
b100100 8
b100100 M
b111 4
b111 B
b111 G
b11111111111111110000000010101000 O
b110001011110000000010101000 L
b10 6
b10 F
b10 I
00
0.
05
1-
b1011 Z
b11000 Y
b101011 %
b101011 A
b101011 U
b100 D
b100100 N
b101010 )
b101010 <
b101010 E
b0 *
b0 ;
b1100010111100000000101010 (
b1100010111100000000101010 =
b1100010111100000000101010 ?
b1100010111100000000101010 H
b1100010111100000000101010 K
b1100010111100000000101010 X
b100 $
b100 @
b100 S
b100 V
b100000 &
b100000 9
b100000 :
b100000 J
1!
#360000
0!
#370000
b110 4
b110 B
b110 G
b0 D
b1 6
b1 F
b1 I
12
0,
0-
b1000 O
b1100000000000000000000001000 L
b0 Z
b0 Y
b0 %
b0 A
b0 U
b0 $
b0 @
b0 S
b0 V
b110000 '
b110000 8
b110000 M
b10 )
b10 <
b10 E
b100 *
b100 ;
b10011000000000000000000000010 (
b10011000000000000000000000010 =
b10011000000000000000000000010 ?
b10011000000000000000000000010 H
b10011000000000000000000000010 K
b10011000000000000000000000010 X
b101000 N
b100100 &
b100100 9
b100100 :
b100100 J
1!
#380000
0!
#390000
0P
b10 #
b10 T
b10 W
0+
b10 7
b10 C
b10 Q
b10 R
b110100 '
b110100 8
b110100 M
b10 4
b10 B
b10 G
b1 D
b100 O
b1001010010000000000000000100 L
b0 6
b0 F
b0 I
02
1,
15
b10010 Z
b1 %
b1 A
b1 U
b1 $
b1 @
b1 S
b1 V
b110100 N
b1 )
b1 <
b1 E
b1000 *
b1000 ;
b100010010100100000000000000001 (
b100010010100100000000000000001 =
b100010010100100000000000000001 ?
b100010010100100000000000000001 H
b100010010100100000000000000001 K
b100010010100100000000000000001 X
b110000 &
b110000 9
b110000 :
b110000 J
1!
#400000
0!
#410000
b100 O
b101001010000000000000000100 L
b1010 Z
b111000 '
b111000 8
b111000 M
b10 #
b10 T
b10 W
b100001010010100000000000000001 (
b100001010010100000000000000001 =
b100001010010100000000000000001 ?
b100001010010100000000000000001 H
b100001010010100000000000000001 K
b100001010010100000000000000001 X
b111000 N
b10 7
b10 C
b10 Q
b10 R
b110100 &
b110100 9
b110100 :
b110100 J
b1 %
b1 A
b1 U
b1 $
b1 @
b1 S
b1 V
1!
#420000
0!
#430000
1P
b11111111111111111111111111111010 #
b11111111111111111111111111111010 T
b11111111111111111111111111111010 W
b11000 '
b11000 8
b11000 M
b110 4
b110 B
b110 G
b11111111111111111111111111011100 O
b101010111111111111111011100 L
b1 6
b1 F
b1 I
13
12
0,
05
b10111 Z
b11111 Y
b11111111111111111111111111111010 7
b11111111111111111111111111111010 C
b11111111111111111111111111111010 Q
b11111111111111111111111111111010 R
b1000 D
b111100 N
b110111 )
b110111 <
b110111 E
b101 *
b101 ;
b10101010101111111111111110111 (
b10101010101111111111111110111 =
b10101010101111111111111110111 ?
b10101010101111111111111110111 H
b10101010101111111111111110111 K
b10101010101111111111111110111 X
b10 %
b10 A
b10 U
b1000 $
b1000 @
b1000 S
b1000 V
b111000 &
b111000 9
b111000 :
b111000 J
1!
#440000
0!
#450000
b10 7
b10 C
b10 Q
b10 R
0P
b101011 #
b101011 T
b101011 W
b10 4
b10 B
b10 G
b0 D
b0 6
b0 F
b0 I
03
02
10
1,
1.
15
b0 O
b1001001011000000000000000000 L
b1011 Z
b0 Y
b100 $
b100 @
b100 S
b100 V
b11100 '
b11100 8
b11100 M
b0 )
b0 <
b0 E
b100011 *
b100011 ;
b10001110010010110000000000000000 (
b10001110010010110000000000000000 =
b10001110010010110000000000000000 ?
b10001110010010110000000000000000 H
b10001110010010110000000000000000 K
b10001110010010110000000000000000 X
b11100 N
b11000 &
b11000 9
b11000 :
b11000 J
1!
#460000
0!
#470000
b1100 #
b1100 T
b1100 W
b11 7
b11 C
b11 Q
b11 R
b100000 '
b100000 8
b100000 M
b100 O
b1001001100000000000000000100 L
b1100 Z
b1 D
b100000 N
b1 )
b1 <
b1 E
b10001110010011000000000000000001 (
b10001110010011000000000000000001 =
b10001110010011000000000000000001 ?
b10001110010011000000000000000001 H
b10001110010011000000000000000001 K
b10001110010011000000000000000001 X
b101011 $
b101011 @
b101011 S
b101011 V
b11100 &
b11100 9
b11100 :
b11100 J
1!
#480000
0!
#490000
b1 #
b1 T
b1 W
b1 7
b1 C
b1 Q
b1 R
b111 4
b111 B
b111 G
b101011 D
b10 6
b10 F
b10 I
00
0.
05
1-
b11111111111111110000000010101000 O
b110001011110000000010101000 L
b1011 Z
b11000 Y
b1100 %
b1100 A
b1100 U
b100100 '
b100100 8
b100100 M
b101010 )
b101010 <
b101010 E
b0 *
b0 ;
b1100010111100000000101010 (
b1100010111100000000101010 =
b1100010111100000000101010 ?
b1100010111100000000101010 H
b1100010111100000000101010 K
b1100010111100000000101010 X
b100100 N
b100000 &
b100000 9
b100000 :
b100000 J
b101011 $
b101011 @
b101011 S
b101011 V
1!
#500000
0!
#510000
b101000 '
b101000 8
b101000 M
b110 4
b110 B
b110 G
b0 D
b1000 O
b1100000000000000000000001000 L
b1 6
b1 F
b1 I
12
0,
0-
b0 Z
b0 Y
b1 %
b1 A
b1 U
b0 $
b0 @
b0 S
b0 V
b101000 N
b10 )
b10 <
b10 E
b100 *
b100 ;
b10011000000000000000000000010 (
b10011000000000000000000000010 =
b10011000000000000000000000010 ?
b10011000000000000000000000010 H
b10011000000000000000000000010 K
b10011000000000000000000000010 X
b100100 &
b100100 9
b100100 :
b100100 J
1!
#520000
0!
#530000
b10 #
b10 T
b10 W
b10 7
b10 C
b10 Q
b10 R
b10 4
b10 B
b10 G
b0 6
b0 F
b0 I
02
1/
15
b0 O
b1001001100000000000000000000 L
b1100 Z
b10 %
b10 A
b10 U
b1100 $
b1100 @
b1100 S
b1100 V
b101100 '
b101100 8
b101100 M
b0 )
b0 <
b0 E
b101011 *
b101011 ;
b10101110010011000000000000000000 (
b10101110010011000000000000000000 =
b10101110010011000000000000000000 ?
b10101110010011000000000000000000 H
b10101110010011000000000000000000 K
b10101110010011000000000000000000 X
b101100 N
b101000 &
b101000 9
b101000 :
b101000 J
1!
#540000
0!
#550000
b11 #
b11 T
b11 W
b11 7
b11 C
b11 Q
b11 R
b110000 '
b110000 8
b110000 M
b1 D
b100 O
b1001001011000000000000000100 L
b1011 Z
b101011 $
b101011 @
b101011 S
b101011 V
b110000 N
b1 )
b1 <
b1 E
b10101110010010110000000000000001 (
b10101110010010110000000000000001 =
b10101110010010110000000000000001 ?
b10101110010010110000000000000001 H
b10101110010010110000000000000001 K
b10101110010010110000000000000001 X
b101100 &
b101100 9
b101100 :
b101100 J
1!
#560000
0!
#570000
0/
1,
b100 O
b1001010010000000000000000100 L
b10010 Z
b10 $
b10 @
b10 S
b10 V
b110100 '
b110100 8
b110100 M
b1000 *
b1000 ;
b100010010100100000000000000001 (
b100010010100100000000000000001 =
b100010010100100000000000000001 ?
b100010010100100000000000000001 H
b100010010100100000000000000001 K
b100010010100100000000000000001 X
b110100 N
b110000 &
b110000 9
b110000 :
b110000 J
1!
#580000
0!
#590000
b11 #
b11 T
b11 W
b111000 '
b111000 8
b111000 M
b100 O
b101001010000000000000000100 L
b1010 Z
b11 7
b11 C
b11 Q
b11 R
b111000 N
b100001010010100000000000000001 (
b100001010010100000000000000001 =
b100001010010100000000000000001 ?
b100001010010100000000000000001 H
b100001010010100000000000000001 K
b100001010010100000000000000001 X
b10 %
b10 A
b10 U
b10 $
b10 @
b10 S
b10 V
b110100 &
b110100 9
b110100 :
b110100 J
1!
#600000
0!
#610000
1P
b110 4
b110 B
b110 G
b1000 D
b1 6
b1 F
b1 I
13
12
0,
05
b11111111111111111111111111011100 O
b101010111111111111111011100 L
b10111 Z
b11111 Y
b11000 '
b11000 8
b11000 M
b11111111111111111111111111111011 #
b11111111111111111111111111111011 T
b11111111111111111111111111111011 W
b110111 )
b110111 <
b110111 E
b101 *
b101 ;
b10101010101111111111111110111 (
b10101010101111111111111110111 =
b10101010101111111111111110111 ?
b10101010101111111111111110111 H
b10101010101111111111111110111 K
b10101010101111111111111110111 X
b111100 N
b11111111111111111111111111111011 7
b11111111111111111111111111111011 C
b11111111111111111111111111111011 Q
b11111111111111111111111111111011 R
b111000 &
b111000 9
b111000 :
b111000 J
b11 %
b11 A
b11 U
b1000 $
b1000 @
b1000 S
b1000 V
1!
#620000
0!
#630000
b11 7
b11 C
b11 Q
b11 R
0P
b101011 #
b101011 T
b101011 W
b11100 '
b11100 8
b11100 M
b10 4
b10 B
b10 G
b0 D
b0 O
b1001001011000000000000000000 L
b0 6
b0 F
b0 I
03
02
10
1,
1.
15
b1011 Z
b0 Y
b101011 $
b101011 @
b101011 S
b101011 V
b11100 N
b0 )
b0 <
b0 E
b100011 *
b100011 ;
b10001110010010110000000000000000 (
b10001110010010110000000000000000 =
b10001110010010110000000000000000 ?
b10001110010010110000000000000000 H
b10001110010010110000000000000000 K
b10001110010010110000000000000000 X
b11000 &
b11000 9
b11000 :
b11000 J
1!
#640000
0!
#650000
b101 #
b101 T
b101 W
b100 7
b100 C
b100 Q
b100 R
b1 D
b100 O
b1001001100000000000000000100 L
b1100 Z
b1100 $
b1100 @
b1100 S
b1100 V
b100000 '
b100000 8
b100000 M
b1 )
b1 <
b1 E
b10001110010011000000000000000001 (
b10001110010011000000000000000001 =
b10001110010011000000000000000001 ?
b10001110010011000000000000000001 H
b10001110010011000000000000000001 K
b10001110010011000000000000000001 X
b100000 N
b11100 &
b11100 9
b11100 :
b11100 J
1!
#660000
0!
#670000
b1 #
b1 T
b1 W
b1 7
b1 C
b1 Q
b1 R
b100100 '
b100100 8
b100100 M
b111 4
b111 B
b111 G
b11111111111111110000000010101000 O
b110001011110000000010101000 L
b10 6
b10 F
b10 I
00
0.
05
1-
b1011 Z
b11000 Y
b101 %
b101 A
b101 U
b101011 D
b100100 N
b101010 )
b101010 <
b101010 E
b0 *
b0 ;
b1100010111100000000101010 (
b1100010111100000000101010 =
b1100010111100000000101010 ?
b1100010111100000000101010 H
b1100010111100000000101010 K
b1100010111100000000101010 X
b101011 $
b101011 @
b101011 S
b101011 V
b100000 &
b100000 9
b100000 :
b100000 J
1!
#680000
0!
#690000
b110 4
b110 B
b110 G
b0 D
b1 6
b1 F
b1 I
12
0,
0-
b1000 O
b1100000000000000000000001000 L
b0 Z
b0 Y
b1 %
b1 A
b1 U
b0 $
b0 @
b0 S
b0 V
b101000 '
b101000 8
b101000 M
b10 )
b10 <
b10 E
b100 *
b100 ;
b10011000000000000000000000010 (
b10011000000000000000000000010 =
b10011000000000000000000000010 ?
b10011000000000000000000000010 H
b10011000000000000000000000010 K
b10011000000000000000000000010 X
b101000 N
b100100 &
b100100 9
b100100 :
b100100 J
1!
#700000
0!
#710000
b11 #
b11 T
b11 W
b11 7
b11 C
b11 Q
b11 R
b101100 '
b101100 8
b101100 M
b10 4
b10 B
b10 G
b0 O
b1001001100000000000000000000 L
b0 6
b0 F
b0 I
02
1/
15
b1100 Z
b11 %
b11 A
b11 U
b101 $
b101 @
b101 S
b101 V
b101100 N
b0 )
b0 <
b0 E
b101011 *
b101011 ;
b10101110010011000000000000000000 (
b10101110010011000000000000000000 =
b10101110010011000000000000000000 ?
b10101110010011000000000000000000 H
b10101110010011000000000000000000 K
b10101110010011000000000000000000 X
b101000 &
b101000 9
b101000 :
b101000 J
1!
#720000
0!
#730000
b100 #
b100 T
b100 W
b100 7
b100 C
b100 Q
b100 R
b1 D
b100 O
b1001001011000000000000000100 L
b1011 Z
b101011 $
b101011 @
b101011 S
b101011 V
b110000 '
b110000 8
b110000 M
b1 )
b1 <
b1 E
b10101110010010110000000000000001 (
b10101110010010110000000000000001 =
b10101110010010110000000000000001 ?
b10101110010010110000000000000001 H
b10101110010010110000000000000001 K
b10101110010010110000000000000001 X
b110000 N
b101100 &
b101100 9
b101100 :
b101100 J
1!
#740000
0!
#750000
b110100 '
b110100 8
b110100 M
b100 O
b1001010010000000000000000100 L
0/
1,
b10010 Z
b11 $
b11 @
b11 S
b11 V
b110100 N
b1000 *
b1000 ;
b100010010100100000000000000001 (
b100010010100100000000000000001 =
b100010010100100000000000000001 ?
b100010010100100000000000000001 H
b100010010100100000000000000001 K
b100010010100100000000000000001 X
b110000 &
b110000 9
b110000 :
b110000 J
1!
#760000
0!
#770000
b100 O
b101001010000000000000000100 L
b1010 Z
b111000 '
b111000 8
b111000 M
b100 #
b100 T
b100 W
b100001010010100000000000000001 (
b100001010010100000000000000001 =
b100001010010100000000000000001 ?
b100001010010100000000000000001 H
b100001010010100000000000000001 K
b100001010010100000000000000001 X
b111000 N
b100 7
b100 C
b100 Q
b100 R
b110100 &
b110100 9
b110100 :
b110100 J
b11 %
b11 A
b11 U
b11 $
b11 @
b11 S
b11 V
1!
#780000
0!
#790000
1P
b11111111111111111111111111111100 #
b11111111111111111111111111111100 T
b11111111111111111111111111111100 W
b11000 '
b11000 8
b11000 M
b110 4
b110 B
b110 G
b11111111111111111111111111011100 O
b101010111111111111111011100 L
b1 6
b1 F
b1 I
13
12
0,
05
b10111 Z
b11111 Y
b11111111111111111111111111111100 7
b11111111111111111111111111111100 C
b11111111111111111111111111111100 Q
b11111111111111111111111111111100 R
b1000 D
b111100 N
b110111 )
b110111 <
b110111 E
b101 *
b101 ;
b10101010101111111111111110111 (
b10101010101111111111111110111 =
b10101010101111111111111110111 ?
b10101010101111111111111110111 H
b10101010101111111111111110111 K
b10101010101111111111111110111 X
b100 %
b100 A
b100 U
b1000 $
b1000 @
b1000 S
b1000 V
b111000 &
b111000 9
b111000 :
b111000 J
1!
#800000
0!
#810000
b100 7
b100 C
b100 Q
b100 R
0P
b101011 #
b101011 T
b101011 W
b10 4
b10 B
b10 G
b0 D
b0 6
b0 F
b0 I
03
02
10
1,
1.
15
b0 O
b1001001011000000000000000000 L
b1011 Z
b0 Y
b101011 $
b101011 @
b101011 S
b101011 V
b11100 '
b11100 8
b11100 M
b0 )
b0 <
b0 E
b100011 *
b100011 ;
b10001110010010110000000000000000 (
b10001110010010110000000000000000 =
b10001110010010110000000000000000 ?
b10001110010010110000000000000000 H
b10001110010010110000000000000000 K
b10001110010010110000000000000000 X
b11100 N
b11000 &
b11000 9
b11000 :
b11000 J
1!
#820000
0!
#830000
b10110 #
b10110 T
b10110 W
b101 7
b101 C
b101 Q
b101 R
b100000 '
b100000 8
b100000 M
b1 D
b100 O
b1001001100000000000000000100 L
b1100 Z
b101 $
b101 @
b101 S
b101 V
b100000 N
b1 )
b1 <
b1 E
b10001110010011000000000000000001 (
b10001110010011000000000000000001 =
b10001110010011000000000000000001 ?
b10001110010011000000000000000001 H
b10001110010011000000000000000001 K
b10001110010011000000000000000001 X
b11100 &
b11100 9
b11100 :
b11100 J
1!
#840000
0!
#850000
b1 #
b1 T
b1 W
b1 7
b1 C
b1 Q
b1 R
b111 4
b111 B
b111 G
b101011 D
b10 6
b10 F
b10 I
00
0.
05
1-
b11111111111111110000000010101000 O
b110001011110000000010101000 L
b1011 Z
b11000 Y
b10110 %
b10110 A
b10110 U
b100100 '
b100100 8
b100100 M
b101010 )
b101010 <
b101010 E
b0 *
b0 ;
b1100010111100000000101010 (
b1100010111100000000101010 =
b1100010111100000000101010 ?
b1100010111100000000101010 H
b1100010111100000000101010 K
b1100010111100000000101010 X
b100100 N
b100000 &
b100000 9
b100000 :
b100000 J
b101011 $
b101011 @
b101011 S
b101011 V
1!
#860000
0!
#870000
b101000 '
b101000 8
b101000 M
b110 4
b110 B
b110 G
b0 D
b1000 O
b1100000000000000000000001000 L
b1 6
b1 F
b1 I
12
0,
0-
b0 Z
b0 Y
b1 %
b1 A
b1 U
b0 $
b0 @
b0 S
b0 V
b101000 N
b10 )
b10 <
b10 E
b100 *
b100 ;
b10011000000000000000000000010 (
b10011000000000000000000000010 =
b10011000000000000000000000010 ?
b10011000000000000000000000010 H
b10011000000000000000000000010 K
b10011000000000000000000000010 X
b100100 &
b100100 9
b100100 :
b100100 J
1!
#880000
0!
